{
  "type": "service_account",
  "project_id": "kemnakertu",
  "private_key_id": "3c2489f5fe8e1a158f6a8784baf235f6b6d673a6",
  "private_key": "-----BEGIN PRIVATE KEY-----\nMIIEvgIBADANBgkqhkiG9w0BAQEFAASCBKgwggSkAgEAAoIBAQCYY1oRpCOUBvwU\nwEw6ho21YA4VCCrd1X2sCl02VI2siYcdb212Cim/hRlhQxq3tfl/pZNExkVr2Vew\nUKPLe8iJ5E1cSQsA8WwubYwIgcvrytfUCEZDN+o0JP/PyElcJqwjfG6MMKcjoU9C\nsCuAigG3a/ucBmkAbX+1UyF/yIrtyFN1snRIzK2e/KwfM5z8UEmJj1Pdrg045Ezu\nuWOiKn2U66CMd+y2leiGWZQ/itYJFSl9h8xduz++Pun5NfbTygXz4HvSZ9l8BPyC\nCn6Ll1zaFi2DT4T3LF/xMZp+BkR6diNR1ZKGKW6fkqGhyY+VY2MM103kAAUYGIiy\niFd2pVVHAgMBAAECggEAE4wG9SVXVPkSY70I6ibxTXctR0Bdc0gbzzIjI8FzzNJ1\nTO7KnS4PjdwOVd4MMs16XAfKnLNMG1ntOBYX9JWDs0BgNfq+mRfetxPhNwQjOrMx\nvSZ0kNG+zoKCd84qrtHdGc4vxfbFsbnS12yOn/XT44nL5Ackd+QT0hgAP4pjW724\nO4eYh4EHbcf2duHPBTZXEhUdoNB6NBsPHECpMKxAELRtciQYepkv3sGijMWxjzfQ\nIhuAAjduhhc3jYVvXVi6Hwyek/dUgeTTk8iqXuWhCGnUWp1SAQ0kxmlGbIrSQ1k/\netOivb8Fwnw+0oDsGvS73bQIY5hRAd8eqV92VvfEvQKBgQDUsXReOQ/8zU4JA2uu\npZRs2de2lbnHX9rG9wsJZx5KibVDvMu/Znk/pFo++08skQeZrcV0WdjT0HrNZJ2d\n0hclt7GsZ3u7G6cNlZ9x63kOWpVSFtjf0MPkVIdQ0+fkZkkIdZG3JrB8ZLuAl/IR\nsi+ptJwB9lmjtfEXzSog2BNnrQKBgQC3aoTjAS3PHChJtE9TjCbo3qtlfnYPtzoO\n50oO+NhwGklgKK8wK2lXImt2BWrG/tcWJ96pRXsx8kAgJsC7ORbaVYb/RXfpiMhZ\n0ve0jff4CrD20UlrWtfSrKLU9dyx5lwhBljaGPdyPLpu7b3km6DHwCtlw3OY+A2h\norf7MXhfQwKBgQDC9DEs2HL+DpUzj84ZFC6bI4YlFtJlnEflTbXxFXLfcaATia7c\nLqp+mkAaMLIesITd6Tju8Bfd9t9I+qu6aELNULXryCLSm4Mg4X93pRWeAYuS5dw+\nMpYL6Srq/IE2ikbxGQrKbQ0hyBdRxHSeocwsap8A8XSyqWdmoKi32DbZNQKBgQCN\n3IxVi3bj5rJed2CXjSIXIQpOIOattxjnqAqG0/+LjTlNb4o4Zos+Qrf8+6mfqkGv\nuDymjcAAXI8ujuqopDpBur8EN7XMYegcWWkPNHMjXRmMfUkdCJE/OBllP5hn3HVL\ncb5NSdwxdjj4TVd/NsO/W6n1Npv1J35bkyBb3+JrQwKBgGpU1l6QWQb1EumCuoQn\n1qVLEk61+tq6c6c9OmHFpDI28P4qXySppQF+eAEf+DIWkl3GRmhlzO720B5NFOSB\nHZqvww+gDBG5MphDsZ0K/hKIPgpHK+5A3DbTkzgKHEF+cJUX1KSpqq/aARkN/QAr\n6UUHZ5AsT2eJawngdqxPs47X\n-----END PRIVATE KEY-----\n",
  "client_email": "kemnaker-super@kemnakertu.iam.gserviceaccount.com",
  "client_id": "100908242575372048558",
  "auth_uri": "https://accounts.google.com/o/oauth2/auth",
  "token_uri": "https://oauth2.googleapis.com/token",
  "auth_provider_x509_cert_url": "https://www.googleapis.com/oauth2/v1/certs",
  "client_x509_cert_url": "https://www.googleapis.com/robot/v1/metadata/x509/kemnaker-super%40kemnakertu.iam.gserviceaccount.com"
}
